riscv32/time_seq/pipe_if.vcd
$date
	Sun Jul 17 10:00:06 2022
$end
$version
	GTKWave Analyzer v3.3.100 (w)1999-2019 BSI
$end
$timescale
	1ns
$end
$scope module rv32_tb $end
$scope module pipe_top_inst $end
$var wire 32 % if_pc[31:0] $end
$var wire 32 & if_instr[31:0] $end
$var wire 32 ( ram_addr[31:0] $end
$var wire 32 ' pc_pcout[31:0] $end
$scope module sram_master $end
$var wire 1 " rst_n $end
$upscope $end
$upscope $end
$var wire 1 $ sram_clk $end
$var wire 1 # pipe_clk $end
$scope module pipe_top_inst $end
$scope module sram_master $end
$var wire 32 ) dout[31:0] $end
$upscope $end
$upscope $end
$upscope $end
$enddefinitions $end
$dumpvars
#0
x#
bx )
bx &
bx %
bx '
x$
1"
bx (
#10
0#
0"
0$
#30
1$
1"
#50
0$
#70
1$
#90
0$
#110
1$
#130
0$
#150
1$
#170
0$
#190
1$
#210
0$
b0 (
b0 %
b0 '
1#
#230
1$
#250
0$
#270
1$
#290
0$
#310
1$
#330
0$
#350
1$
#370
0$
#390
1$
#410
0$
0#
#430
1$
#450
0$
#470
1$
#490
0$
#510
1$
#530
0$
#550
1$
b111111000000000000000000011 )
b111111000000000000000000011 &
#570
0$
#590
1$
#610
0$
1#
b100 (
b100 '
b100 %
#630
1$
#650
0$
#670
1$
#690
0$
#710
1$
#730
0$
#750
1$
#770
0$
#790
1$
#810
0$
0#
#830
1$
#850
0$
#870
1$
#890
0$
#910
1$
#930
0$
#950
1$
b111111000000000001000000011 &
b111111000000000001000000011 )
#970
0$
#990
1$
#1010
0$
1#
b1000 %
b1000 '
b1000 (
#1030
1$
#1050
0$
#1070
1$
#1090
0$
#1110
1$
#1130
0$
#1150
1$
#1170
0$
#1190
1$
#1210
0$
0#
#1230
1$
#1250
0$
#1270
1$
#1290
0$
#1310
1$
#1330
0$
#1350
1$
b111111000000000000010000011 )
b111111000000000000010000011 &
#1370
0$
#1390
1$
#1410
0$
1#
b1100 (
b1100 '
b1100 %
#1430
1$
#1450
0$
#1470
1$
#1490
0$
#1510
1$
#1530
0$
#1550
1$
#1570
0$
#1590
1$
#1610
0$
0#
#1630
1$
#1650
0$
#1670
1$
#1690
0$
#1710
1$
#1730
0$
#1750
1$
b111111000000000001010000011 &
b111111000000000001010000011 )
#1770
0$
#1790
1$
#1810
0$
1#
b10000 %
b10000 '
b10000 (
#1830
1$
#1850
0$
#1870
1$
#1890
0$
#1910
1$
#1930
0$
#1950
1$
#1970
0$
#1990
1$
#2010
0$
0#
#2030
1$
#2050
0$
#2070
1$
#2090
0$
#2110
1$
#2130
0$
#2150
1$
b111111000000000000100000011 )
b111111000000000000100000011 &
#2170
0$
#2190
1$
#2210
0$
1#
b10100 (
b10100 '
b10100 %
#2230
1$
#2250
0$
#2270
1$
#2290
0$
#2310
1$
#2330
0$
#2350
1$
#2370
0$
#2390
1$
#2410
0$
0#
#2430
1$
#2450
0$
#2470
1$
#2490
0$
#2510
1$
#2530
0$
#2550
1$
bx &
bx )
#2570
0$
#2590
1$
#2610
0$
1#
b11000 %
b11000 '
b11000 (
#2630
1$
#2650
0$
#2670
1$
#2690
0$
#2710
1$
#2730
0$
#2750
1$
#2770
0$
#2790
1$
#2810
0$
0#
#2830
1$
#2850
0$
#2870
1$
#2890
0$
#2910
1$
#2930
0$
#2950
1$
#2970
0$
#2990
1$
#3010
0$
1#
b11100 (
b11100 '
b11100 %
#3030
1$
#3050
0$
#3070
1$
#3090
0$
#3110
1$
#3130
0$
#3150
1$
#3170
0$
#3190
1$
#3210
0$
0#
#3230
1$
#3250
0$
#3270
1$
#3290
0$
#3310
1$
#3330
0$
#3350
1$
#3370
0$
#3390
1$
#3410
0$
1#
b100000 %
b100000 '
b100000 (
#3430
1$
#3450
0$
#3470
1$
#3490
0$
#3510
1$
#3530
0$
#3550
1$
#3570
0$
#3590
1$
#3610
0$
0#
#3630
1$
#3650
0$
#3670
1$
#3690
0$
#3710
1$
#3730
0$
#3750
1$
#3770
0$
#3790
1$
#3810
0$
1#
b100100 (
b100100 '
b100100 %
#3830
1$
#3850
0$
#3870
1$
#3890
0$
#3910
1$
#3930
0$
#3950
1$
#3970
0$
#3990
1$
#4010
0$
0#
#4030
1$
#4050
0$
#4070
1$
#4090
0$
#4110
1$
#4130
0$
#4150
1$
#4170
0$
#4190
1$
#4210
0$
1#
b101000 %
b101000 '
b101000 (
#4230
1$
#4250
0$
#4270
1$
#4290
0$
#4310
1$
#4330
0$
#4350
1$
#4370
0$
#4390
1$
#4410
0$
0#
#4430
1$
#4450
0$
#4470
1$
#4490
0$
#4510
1$
#4530
0$
#4550
1$
#4570
0$
#4590
1$
#4610
0$
1#
b101100 (
b101100 '
b101100 %
#4630
1$
#4650
0$
#4670
1$
#4690
0$
#4710
1$
#4730
0$
#4750
1$
#4770
0$
#4790
1$
#4810
0$
0#
#4830
1$
#4850
0$
#4870
1$
#4890
0$
#4910
1$
#4930
0$
#4950
1$
#4970
0$
#4990
1$
#5010
0$
1#
b110000 %
b110000 '
b110000 (
#5030
1$
#5050
0$
#5070
1$
#5090
0$
#5110
1$
#5130
0$
#5150
1$
#5170
0$
#5190
1$
#5210
0$
0#
#5230
1$
#5250
0$
#5270
1$
#5290
0$
#5310
1$
#5330
0$
#5350
1$
#5370
0$
#5390
1$
#5410
0$
1#
b110100 (
b110100 '
b110100 %
#5430
1$
#5450
0$
#5470
1$
#5490
0$
#5510
1$
#5530
0$
#5550
1$
#5570
0$
#5590
1$
#5610
0$
0#
#5630
1$
#5650
0$
#5670
1$
#5690
0$
#5710
1$
#5730
0$
#5750
1$
#5770
0$
#5790
1$
#5810
0$
1#
b111000 %
b111000 '
b111000 (
#5830
1$
#5850
0$
#5870
1$
#5890
0$
#5910
1$
#5930
0$
#5950
1$
#5970
0$
#5990
1$
#6010
0$
0#
#6030
1$
#6050
0$
#6070
1$
#6090
0$
#6110
1$
#6130
0$
#6150
1$
#6170
0$
#6190
1$
#6210
0$
1#
b111100 (
b111100 '
b111100 %
#6230
1$
#6250
0$
#6270
1$
#6290
0$
#6310
1$
#6330
0$
#6350
1$
#6370
0$
#6390
1$
#6410
0$
0#
#6430
1$
#6450
0$
#6470
1$
#6490
0$
#6510
1$
#6530
0$
#6550
1$
#6570
0$
#6590
1$
#6610
0$
1#
b1000000 %
b1000000 '
b1000000 (
#6630
1$
#6650
0$
#6670
1$
#6690
0$
#6710
1$
#6730
0$
#6750
1$
#6770
0$
#6790
1$
#6810
0$
0#
#6830
1$
#6850
0$
#6870
1$
#6890
0$
#6910
1$
#6930
0$
#6950
1$
#6970
0$
#6990
1$
#7010
0$
1#
b1000100 (
b1000100 '
b1000100 %
#7030
1$
#7050
0$
#7070
1$
#7090
0$
#7110
1$
#7130
0$
#7150
1$
#7170
0$
#7190
1$
#7210
0$
0#
#7230
1$
#7250
0$
#7270
1$
#7290
0$
#7310
1$
#7330
0$
#7350
1$
#7370
0$
#7390
1$
#7410
0$
1#
b1001000 %
b1001000 '
b1001000 (
#7430
1$
#7450
0$
#7470
1$
#7490
0$
#7510
1$
#7530
0$
#7550
1$
#7570
0$
#7590
1$
#7610
0$
0#
#7630
1$
#7650
0$
#7670
1$
#7690
0$
#7710
1$
#7730
0$
#7750
1$
#7770
0$
#7790
1$
#7810
0$
1#
b1001100 (
b1001100 '
b1001100 %
#7830
1$
#7850
0$
#7870
1$
#7890
0$
#7910
1$
#7930
0$
#7950
1$
#7970
0$
#7990
1$
#8010
0$
0#
#8030
1$
#8050
0$
#8070
1$
#8090
0$
#8110
1$
#8130
0$
#8150
1$
#8170
0$
#8190
1$
#8210
0$
1#
b1010000 %
b1010000 '
b1010000 (
#8230
1$
#8250
0$
#8270
1$
#8290
0$
#8310
1$
#8330
0$
#8350
1$
#8370
0$
#8390
1$
#8410
0$
0#
#8430
1$
#8450
0$
#8470
1$
#8490
0$
#8510
1$
#8530
0$
#8550
1$
#8570
0$
#8590
1$
#8610
0$
1#
b1010100 (
b1010100 '
b1010100 %
#8630
1$
#8650
0$
#8670
1$
#8690
0$
#8710
1$
#8730
0$
#8750
1$
#8770
0$
#8790
1$
#8810
0$
0#
#8830
1$
#8850
0$
#8870
1$
#8890
0$
#8910
1$
#8930
0$
#8950
1$
#8970
0$
#8990
1$
#9010
0$
1#
b1011000 %
b1011000 '
b1011000 (
#9030
1$
#9050
0$
#9070
1$
#9090
0$
#9110
1$
#9130
0$
#9150
1$
#9170
0$
#9190
1$
#9210
0$
0#
#9230
1$
#9250
0$
#9270
1$
#9290
0$
#9310
1$
#9330
0$
#9350
1$
#9370
0$
#9390
1$
#9410
0$
1#
b1011100 (
b1011100 '
b1011100 %
#9430
1$
#9450
0$
#9470
1$
#9490
0$
#9510
1$
#9530
0$
#9550
1$
#9570
0$
#9590
1$
#9610
0$
0#
#9630
1$
#9650
0$
#9670
1$
#9690
0$
#9710
1$
#9730
0$
#9750
1$
#9770
0$
#9790
1$
#9810
0$
1#
b1100000 %
b1100000 '
b1100000 (
#9830
1$
#9850
0$
#9870
1$
#9890
0$
#9910
1$
#9930
0$
#9950
1$
#9970
0$
#9990
1$
#10010
0$
0#
#10030
1$
#10050
0$
#10070
1$
#10090
0$
#10110
1$
#10130
0$
#10150
1$
#10170
0$
#10190
1$
#10210
0$
1#
b1100100 (
b1100100 '
b1100100 %
#10230
1$
#10250
0$
#10270
1$
#10290
0$
#10310
1$
#10330
0$
#10350
1$
#10370
0$
#10390
1$
#10410
0$
0#
#10430
1$
#10450
0$
#10470
1$
#10490
0$
#10510
1$
#10530
0$
#10550
1$
#10570
0$
#10590
1$
#10610
0$
1#
b1101000 %
b1101000 '
b1101000 (
#10630
1$
#10650
0$
#10670
1$
#10690
0$
#10710
1$
#10730
0$
#10750
1$
#10770
0$
#10790
1$
#10810
0$
0#
#10830
1$
#10850
0$
#10870
1$
#10890
0$
#10910
1$
#10930
0$
#10950
1$
#10970
0$
#10990
1$
#11010
0$
1#
b1101100 (
b1101100 '
b1101100 %
#11030
1$
#11050
0$
#11070
1$
#11090
0$
#11110
1$
#11130
0$
#11150
1$
#11170
0$
#11190
1$
#11210
0$
0#
#11230
1$
#11250
0$
#11270
1$
#11290
0$
#11310
1$
#11330
0$
#11350
1$
#11370
0$
#11390
1$
#11410
0$
1#
b1110000 %
b1110000 '
b1110000 (
#11430
1$
#11450
0$
#11470
1$
#11490
0$
#11510
1$
#11530
0$
#11550
1$
#11570
0$
#11590
1$
#11610
0$
0#
#11630
1$
#11650
0$
#11670
1$
#11690
0$
#11710
1$
#11730
0$
#11750
1$
#11770
0$
#11790
1$
#11810
0$
1#
b1110100 (
b1110100 '
b1110100 %
#11830
1$
#11850
0$
#11870
1$
#11890
0$
#11910
1$
#11930
0$
#11950
1$
#11970
0$
#11990
1$
#12010
0$
0#
#12030
1$
#12050
0$
#12070
1$
#12090
0$
#12110
1$
#12130
0$
#12150
1$
#12170
0$
#12190
1$
#12210
0$
1#
b1111000 %
b1111000 '
b1111000 (
#12230
1$
#12250
0$
#12270
1$
#12290
0$
#12310
1$
#12330
0$
#12350
1$
#12370
0$
#12390
1$
#12410
0$
0#
#12430
1$
#12450
0$
#12470
1$
#12490
0$
#12510
1$
#12530
0$
#12550
1$
#12570
0$
#12590
1$
#12610
0$
1#
b1111100 (
b1111100 '
b1111100 %
#12630
1$
#12650
0$
#12670
1$
#12690
0$
#12710
1$
#12730
0$
#12750
1$
#12770
0$
#12790
1$
#12810
0$
0#
#12830
1$
#12850
0$
#12870
1$
#12890
0$
#12910
1$
#12930
0$
#12950
1$
#12970
0$
#12990
1$
#13010
0$
1#
b10000000 %
b10000000 '
b10000000 (
#13030
1$
#13050
0$
#13070
1$
#13090
0$
#13110
1$
#13130
0$
#13150
1$
#13170
0$
#13190
1$
#13210
0$
0#
#13230
1$
#13250
0$
#13270
1$
#13290
0$
#13310
1$
#13330
0$
#13350
1$
#13370
0$
#13390
1$
#13410
0$
1#
b10000100 (
b10000100 '
b10000100 %
#13430
1$
#13450
0$
#13470
1$
#13490
0$
#13510
1$
#13530
0$
#13550
1$
#13570
0$
#13590
1$
#13610
0$
0#
#13630
1$
#13650
0$
#13670
1$
#13690
0$
#13710
1$
#13730
0$
#13750
1$
#13770
0$
#13790
1$
#13810
0$
1#
b10001000 %
b10001000 '
b10001000 (
#13830
1$
#13850
0$
#13870
1$
#13890
0$
#13910
1$
#13930
0$
#13950
1$
#13970
0$
#13990
1$
#14010
0$
0#
#14030
1$
#14050
0$
#14070
1$
#14090
0$
#14110
1$
#14130
0$
#14150
1$
#14170
0$
#14190
1$
#14210
0$
1#
b10001100 (
b10001100 '
b10001100 %
#14230
1$
#14250
0$
#14270
1$
#14290
0$
#14310
1$
#14330
0$
#14350
1$
#14370
0$
#14390
1$
#14410
0$
0#
#14430
1$
#14450
0$
#14470
1$
#14490
0$
#14510
1$
#14530
0$
#14550
1$
#14570
0$
#14590
1$
#14610
0$
1#
b10010000 %
b10010000 '
b10010000 (
#14630
1$
#14650
0$
#14670
1$
#14690
0$
#14710
1$
#14730
0$
#14750
1$
#14770
0$
#14790
1$
#14810
0$
0#
#14830
1$
#14850
0$
#14870
1$
#14890
0$
#14910
1$
#14930
0$
#14950
1$
#14970
0$
#14990
1$
#15010
0$
1#
b10010100 (
b10010100 '
b10010100 %
#15030
1$
#15050
0$
#15070
1$
#15090
0$
#15110
1$
#15130
0$
#15150
1$
#15170
0$
#15190
1$
#15210
0$
0#
#15230
1$
#15250
0$
#15270
1$
#15290
0$
#15310
1$
#15330
0$
#15350
1$
#15370
0$
#15390
1$
#15410
0$
1#
b10011000 %
b10011000 '
b10011000 (
#15430
1$
#15450
0$
#15470
1$
#15490
0$
#15510
1$
#15530
0$
#15550
1$
#15570
0$
#15590
1$
#15610
0$
0#
#15630
1$
#15650
0$
#15670
1$
#15690
0$
#15710
1$
#15730
0$
#15750
1$
#15770
0$
#15790
1$
#15810
0$
1#
b10011100 (
b10011100 '
b10011100 %
#15830
1$
#15850
0$
#15870
1$
#15890
0$
#15910
1$
#15930
0$
#15950
1$
#15970
0$
#15990
1$
#16010
0$
0#
#16030
1$
#16050
0$
#16070
1$
#16090
0$
#16110
1$
#16130
0$
#16150
1$
#16170
0$
#16190
1$
#16210
0$
1#
b10100000 %
b10100000 '
b10100000 (
#16230
1$
#16250
0$
#16270
1$
#16290
0$
#16310
1$
#16330
0$
#16350
1$
#16370
0$
#16390
1$
#16410
0$
0#
#16430
1$
#16450
0$
#16470
1$
#16490
0$
#16510
1$
#16530
0$
#16550
1$
#16570
0$
#16590
1$
#16610
0$
1#
b10100100 (
b10100100 '
b10100100 %
#16630
1$
#16650
0$
#16670
1$
#16690
0$
#16710
1$
#16730
0$
#16750
1$
#16770
0$
#16790
1$
#16810
0$
0#
#16830
1$
#16850
0$
#16870
1$
#16890
0$
#16910
1$
#16930
0$
#16950
1$
#16970
0$
#16990
1$
#17010
0$
1#
b10101000 %
b10101000 '
b10101000 (
#17030
1$
#17050
0$
#17070
1$
#17090
0$
#17110
1$
#17130
0$
#17150
1$
#17170
0$
#17190
1$
#17210
0$
0#
#17230
1$
#17250
0$
#17270
1$
#17290
0$
#17310
1$
#17330
0$
#17350
1$
#17370
0$
#17390
1$
#17410
0$
1#
b10101100 (
b10101100 '
b10101100 %
#17430
1$
#17450
0$
#17470
1$
#17490
0$
#17510
1$
#17530
0$
#17550
1$
#17570
0$
#17590
1$
#17610
0$
0#
#17630
1$
#17650
0$
#17670
1$
#17690
0$
#17710
1$
#17730
0$
#17750
1$
#17770
0$
#17790
1$
#17810
0$
1#
b10110000 %
b10110000 '
b10110000 (
#17830
1$
#17850
0$
#17870
1$
#17890
0$
#17910
1$
#17930
0$
#17950
1$
#17970
0$
#17990
1$
#18010
0$
0#
#18030
1$
#18050
0$
#18070
1$
#18090
0$
#18110
1$
#18130
0$
#18150
1$
#18170
0$
#18190
1$
#18210
0$
1#
b10110100 (
b10110100 '
b10110100 %
#18230
1$
#18250
0$
#18270
1$
#18290
0$
#18310
1$
#18330
0$
#18350
1$
#18370
0$
#18390
1$
#18410
0$
0#
#18430
1$
#18450
0$
#18470
1$
#18490
0$
#18510
1$
#18530
0$
#18550
1$
#18570
0$
#18590
1$
#18610
0$
1#
b10111000 %
b10111000 '
b10111000 (
#18630
1$
#18650
0$
#18670
1$
#18690
0$
#18710
1$
#18730
0$
#18750
1$
#18770
0$
#18790
1$
#18810
0$
0#
#18830
1$
#18850
0$
#18870
1$
#18890
0$
#18910
1$
#18930
0$
#18950
1$
#18970
0$
#18990
1$
#19010
0$
1#
b10111100 (
b10111100 '
b10111100 %
#19030
1$
#19050
0$
#19070
1$
#19090
0$
#19110
1$
#19130
0$
#19150
1$
#19170
0$
#19190
1$
#19210
0$
0#
#19230
1$
#19250
0$
#19270
1$
#19290
0$
#19310
1$
#19330
0$
#19350
1$
#19370
0$
#19390
1$
#19410
0$
1#
b11000000 %
b11000000 '
b11000000 (
#19430
1$
#19450
0$
#19470
1$
#19490
0$
#19510
1$
#19530
0$
#19550
1$
#19570
0$
#19590
1$
#19610
0$
0#
#19630
1$
#19650
0$
#19670
1$
#19690
0$
#19710
1$
#19730
0$
#19750
1$
#19770
0$
#19790
1$
#19810
0$
1#
b11000100 (
b11000100 '
b11000100 %
#19830
1$
#19850
0$
#19870
1$
#19890
0$
#19910
1$
#19930
0$
#19950
1$
#19970
0$
#19990
1$
#20010
0$
0#
#20030
1$
#20050
0$
#20070
1$
#20090
0$
#20110
1$
#20130
0$
#20150
1$
#20170
0$
#20190
1$
#20210
0$
1#
b11001000 %
b11001000 '
b11001000 (
#20230
1$
#20250
0$
#20270
1$
#20290
0$
#20310
1$
#20330
0$
#20350
1$
#20370
0$
#20390
1$
#20410
0$
0#
#20430
1$
#20450
0$
#20470
1$
#20490
0$
#20510
1$
#20530
0$
#20550
1$
#20570
0$
#20590
1$
#20610
0$
1#
b11001100 (
b11001100 '
b11001100 %
#20630
1$
#20650
0$
#20670
1$
#20690
0$
#20710
1$
#20730
0$
#20750
1$
#20770
0$
#20790
1$
#20810
0$
0#
#20830
1$
#20850
0$
#20870
1$
#20890
0$
#20910
1$
#20930
0$
#20950
1$
#20970
0$
#20990
1$
#21010
0$
1#
b11010000 %
b11010000 '
b11010000 (
#21030
1$
#21050
0$
#21070
1$
#21090
0$
#21110
1$
#21130
0$
#21150
1$
#21170
0$
#21190
1$
#21210
0$
0#
#21230
1$
#21250
0$
#21270
1$
#21290
0$
#21310
1$
#21330
0$
#21350
1$
#21370
0$
#21390
1$
#21410
0$
1#
b11010100 (
b11010100 '
b11010100 %
#21430
1$
#21450
0$
#21470
1$
#21490
0$
#21510
1$
#21530
0$
#21550
1$
#21570
0$
#21590
1$
#21610
0$
0#
#21630
1$
#21650
0$
#21670
1$
#21690
0$
#21710
1$
#21730
0$
#21750
1$
#21770
0$
#21790
1$
#21810
0$
1#
b11011000 %
b11011000 '
b11011000 (
#21830
1$
#21850
0$
#21870
1$
#21890
0$
#21910
1$
#21930
0$
#21950
1$
#21970
0$
#21990
1$
#22010
0$
0#
#22030
1$
#22050
0$
#22070
1$
#22090
0$
#22110
1$
#22130
0$
#22150
1$
#22170
0$
#22190
1$
#22210
0$
1#
b11011100 (
b11011100 '
b11011100 %
#22230
1$
#22250
0$
#22270
1$
#22290
0$
#22310
1$
#22330
0$
#22350
1$
#22370
0$
#22390
1$
#22410
0$
0#
#22430
1$
#22450
0$
#22470
1$
#22490
0$
#22510
1$
#22530
0$
#22550
1$
#22570
0$
#22590
1$
#22610
0$
1#
b11100000 %
b11100000 '
b11100000 (
#22630
1$
#22650
0$
#22670
1$
#22690
0$
#22710
1$
#22730
0$
#22750
1$
#22770
0$
#22790
1$
#22810
0$
0#
#22830
1$
#22850
0$
#22870
1$
#22890
0$
#22910
1$
#22930
0$
#22950
1$
#22970
0$
#22990
1$
#23010
0$
1#
b11100100 (
b11100100 '
b11100100 %
#23030
1$
#23050
0$
#23070
1$
#23090
0$
#23110
1$
#23130
0$
#23150
1$
#23170
0$
#23190
1$
#23210
0$
0#
#23230
1$
#23250
0$
#23270
1$
#23290
0$
#23310
1$
#23330
0$
#23350
1$
#23370
0$
#23390
1$
#23410
0$
1#
b11101000 %
b11101000 '
b11101000 (
#23430
1$
#23450
0$
#23470
1$
#23490
0$
#23510
1$
#23530
0$
#23550
1$
#23570
0$
#23590
1$
#23610
0$
0#
#23630
1$
#23650
0$
#23670
1$
#23690
0$
#23710
1$
#23730
0$
#23750
1$
#23770
0$
#23790
1$
#23810
0$
1#
b11101100 (
b11101100 '
b11101100 %
#23830
1$
#23850
0$
#23870
1$
#23890
0$
#23910
1$
#23930
0$
#23950
1$
#23970
0$
#23990
1$
#24010
0$
0#
#24030
1$
#24050
0$
#24070
1$
#24090
0$
#24110
1$
#24130
0$
#24150
1$
#24170
0$
#24190
1$
#24210
0$
1#
b11110000 %
b11110000 '
b11110000 (
#24230
1$
#24250
0$
#24270
1$
#24290
0$
#24310
1$
#24330
0$
#24350
1$
#24370
0$
#24390
1$
#24410
0$
0#
#24430
1$
#24450
0$
#24470
1$
#24490
0$
#24510
1$
#24530
0$
#24550
1$
#24570
0$
#24590
1$
#24610
0$
1#
b11110100 (
b11110100 '
b11110100 %
#24630
1$
#24650
0$
#24670
1$
#24690
0$
#24710
1$
#24730
0$
#24750
1$
#24770
0$
#24790
1$
#24810
0$
0#
#24830
1$
#24850
0$
#24870
1$
#24890
0$
#24910
1$
#24930
0$
#24950
1$
#24970
0$
#24990
1$
#25010
0$
1#
b11111000 %
b11111000 '
b11111000 (
#25030
1$
#25050
0$
#25070
1$
#25090
0$
#25110
1$
#25130
0$
#25150
1$
#25170
0$
#25190
1$
#25210
0$
0#
#25230
1$
#25250
0$
#25270
1$
#25290
0$
#25310
1$
#25330
0$
#25350
1$
#25370
0$
#25390
1$
#25410
0$
1#
b11111100 (
b11111100 '
b11111100 %
#25430
1$
#25450
0$
#25470
1$
#25490
0$
#25510
1$
#25530
0$
#25550
1$
#25570
0$
#25590
1$
#25610
0$
0#
#25630
1$
#25650
0$
#25670
1$
#25690
0$
#25710
1$
#25730
0$
#25750
1$
#25770
0$
#25790
1$
#25810
0$
1#
b100000000 %
b100000000 '
b100000000 (
#25830
1$
#25850
0$
#25870
1$
#25890
0$
#25910
1$
#25930
0$
#25950
1$
#25970
0$
#25990
1$
#26010
0$
0#
#26030
1$
#26050
0$
#26070
1$
#26090
0$
#26110
1$
#26130
0$
#26150
1$
#26170
0$
#26190
1$
#26210
0$
1#
b100000100 (
b100000100 '
b100000100 %
#26230
1$
#26250
0$
#26270
1$
#26290
0$
#26310
1$
#26330
0$
#26350
1$
#26370
0$
#26390
1$
#26410
0$
0#
#26430
1$
#26450
0$
#26470
1$
#26490
0$
#26510
1$
#26530
0$
#26550
1$
#26570
0$
#26590
1$
#26610
0$
1#
b100001000 %
b100001000 '
b100001000 (
#26630
1$
#26650
0$
#26670
1$
#26690
0$
#26710
1$
#26730
0$
#26750
1$
#26770
0$
#26790
1$
#26810
0$
0#
#26830
1$
#26850
0$
#26870
1$
#26890
0$
#26910
1$
#26930
0$
#26950
1$
#26970
0$
#26990
1$
#27010
0$
1#
b100001100 (
b100001100 '
b100001100 %
#27030
1$
#27050
0$
#27070
1$
#27090
0$
#27110
1$
#27130
0$
#27150
1$
#27170
0$
#27190
1$
#27210
0$
0#
#27230
1$
#27250
0$
#27270
1$
#27290
0$
#27310
1$
#27330
0$
#27350
1$
#27370
0$
#27390
1$
#27410
0$
1#
b100010000 %
b100010000 '
b100010000 (
#27430
1$
#27450
0$
#27470
1$
#27490
0$
#27510
1$
#27530
0$
#27550
1$
#27570
0$
#27590
1$
#27610
0$
0#
#27630
1$
#27650
0$
#27670
1$
#27690
0$
#27710
1$
#27730
0$
#27750
1$
#27770
0$
#27790
1$
#27810
0$
1#
b100010100 (
b100010100 '
b100010100 %
#27830
1$
#27850
0$
#27870
1$
#27890
0$
#27910
1$
#27930
0$
#27950
1$
#27970
0$
#27990
1$
#28010
0$
0#
#28030
1$
#28050
0$
#28070
1$
#28090
0$
#28110
1$
#28130
0$
#28150
1$
#28170
0$
#28190
1$
#28210
0$
1#
b100011000 %
b100011000 '
b100011000 (
#28230
1$
#28250
0$
#28270
1$
#28290
0$
#28310
1$
#28330
0$
#28350
1$
#28370
0$
#28390
1$
#28410
0$
0#
#28430
1$
#28450
0$
#28470
1$
#28490
0$
#28510
1$
#28530
0$
#28550
1$
#28570
0$
#28590
1$
#28610
0$
1#
b100011100 (
b100011100 '
b100011100 %
#28630
1$
#28650
0$
#28670
1$
#28690
0$
#28710
1$
#28730
0$
#28750
1$
#28770
0$
#28790
1$
#28810
0$
0#
#28830
1$
#28850
0$
#28870
1$
#28890
0$
#28910
1$
#28930
0$
#28950
1$
#28970
0$
#28990
1$
#29010
0$
1#
b100100000 %
b100100000 '
b100100000 (
#29030
1$
#29050
0$
#29070
1$
#29090
0$
#29110
1$
#29130
0$
#29150
1$
#29170
0$
#29190
1$
#29210
0$
0#
#29230
1$
#29250
0$
#29270
1$
#29290
0$
#29310
1$
#29330
0$
#29350
1$
#29370
0$
#29390
1$
#29410
0$
1#
b100100100 (
b100100100 '
b100100100 %
#29430
1$
#29450
0$
#29470
1$
#29490
0$
#29510
1$
#29530
0$
#29550
1$
#29570
0$
#29590
1$
#29610
0$
0#
#29630
1$
#29650
0$
#29670
1$
#29690
0$
#29710
1$
#29730
0$
#29750
1$
#29770
0$
#29790
1$
#29810
0$
1#
b100101000 %
b100101000 '
b100101000 (
#29830
1$
#29850
0$
#29870
1$
#29890
0$
#29910
1$
#29930
0$
#29950
1$
#29970
0$
#29990
1$
#30010
0$
0#
#30030
1$
#30050
0$
#30070
1$
#30090
0$
#30110
1$
#30130
0$
#30150
1$
#30170
0$
#30190
1$
#30210
0$
1#
b100101100 (
b100101100 '
b100101100 %
#30230
1$
#30250
0$
#30270
1$
#30290
0$
#30310
1$
#30330
0$
#30350
1$
#30370
0$
#30390
1$
#30410
0$
0#
#30430
1$
#30450
0$
#30470
1$
#30490
0$
#30510
1$
#30530
0$
#30550
1$
#30570
0$
#30590
1$
#30610
0$
1#
b100110000 %
b100110000 '
b100110000 (
#30630
1$
#30650
0$
#30670
1$
#30690
0$
#30710
1$
#30730
0$
#30750
1$
#30770
0$
#30790
1$
#30810
0$
0#
#30830
1$
#30850
0$
#30870
1$
#30890
0$
#30910
1$
#30930
0$
#30950
1$
#30970
0$
#30990
1$
#31010
0$
1#
b100110100 (
b100110100 '
b100110100 %
#31030
1$
#31050
0$
#31070
1$
#31090
0$
#31110
1$
#31130
0$
#31150
1$
#31170
0$
#31190
1$
#31210
0$
0#
#31230
1$
#31250
0$
#31270
1$
#31290
0$
#31310
1$
#31330
0$
#31350
1$
#31370
0$
#31390
1$
#31410
0$
1#
b100111000 %
b100111000 '
b100111000 (
#31430
1$
#31450
0$
#31470
1$
#31490
0$
#31510
1$
#31530
0$
#31550
1$
#31570
0$
#31590
1$
#31610
0$
0#
#31630
1$
#31650
0$
#31670
1$
#31690
0$
#31710
1$
#31730
0$
#31750
1$
#31770
0$
#31790
1$
#31810
0$
1#
b100111100 (
b100111100 '
b100111100 %
#31830
1$
#31850
0$
#31870
1$
#31890
0$
#31910
1$
#31930
0$
#31950
1$
#31970
0$
#31990
1$
#32010
0$
0#
#32030
1$
#32050
0$
#32070
1$
#32090
0$
#32110
1$
#32130
0$
#32150
1$
#32170
0$
#32190
1$
#32210
0$
1#
b101000000 %
b101000000 '
b101000000 (
#32230
1$
#32250
0$
#32270
1$
#32290
0$
#32310
1$
#32330
0$
#32350
1$
#32370
0$
#32390
1$
#32410
0$
0#
#32430
1$
#32450
0$
#32470
1$
#32490
0$
#32510
1$
#32530
0$
#32550
1$
#32570
0$
#32590
1$
#32610
0$
1#
b101000100 (
b101000100 '
b101000100 %
#32630
1$
#32650
0$
#32670
1$
#32690
0$
#32710
1$
#32730
0$
#32750
1$
#32770
0$
#32790
1$
#32810
0$
0#
#32830
1$
#32850
0$
#32870
1$
#32890
0$
#32910
1$
#32930
0$
#32950
1$
#32970
0$
#32990
1$
#33010
0$
1#
b101001000 %
b101001000 '
b101001000 (
#33030
1$
#33050
0$
#33070
1$
#33090
0$
#33110
1$
#33130
0$
#33150
1$
#33170
0$
#33190
1$
#33210
0$
0#
#33230
1$
#33250
0$
#33270
1$
#33290
0$
#33310
1$
#33330
0$
#33350
1$
#33370
0$
#33390
1$
#33410
0$
1#
b101001100 (
b101001100 '
b101001100 %
#33430
1$
#33450
0$
#33470
1$
#33490
0$
#33510
1$
#33530
0$
#33550
1$
#33570
0$
#33590
1$
#33610
0$
0#
#33630
1$
#33650
0$
#33670
1$
#33690
0$
#33710
1$
#33730
0$
#33750
1$
#33770
0$
#33790
1$
#33810
0$
1#
b101010000 %
b101010000 '
b101010000 (
#33830
1$
#33850
0$
#33870
1$
#33890
0$
#33910
1$
#33930
0$
#33950
1$
#33970
0$
#33990
1$
#34010
0$
0#
#34030
1$
#34050
0$
#34070
1$
#34090
0$
#34110
1$
#34130
0$
#34150
1$
#34170
0$
#34190
1$
#34210
0$
1#
b101010100 (
b101010100 '
b101010100 %
#34230
1$
#34250
0$
#34270
1$
#34290
0$
#34310
1$
#34330
0$
#34350
1$
#34370
0$
#34390
1$
#34410
0$
0#
#34430
1$
#34450
0$
#34470
1$
#34490
0$
#34510
1$
#34530
0$
#34550
1$
#34570
0$
#34590
1$
#34610
0$
1#
b101011000 %
b101011000 '
b101011000 (
#34630
1$
#34650
0$
#34670
1$
#34690
0$
#34710
1$
#34730
0$
#34750
1$
#34770
0$
#34790
1$
#34810
0$
0#
#34830
1$
#34850
0$
#34870
1$
