riscv32/time_seq/rv32_for.vcd
$date
	Tue Jul 26 19:34:10 2022
$end
$version
	GTKWave Analyzer v3.3.100 (w)1999-2019 BSI
$end
$timescale
	1ns
$end
$scope module rv32_tb $end
$scope module pipe_top_inst $end
$scope module pipe_mem_inst $end
$var wire 32 : mem_ram_din[31:0] $end
$var wire 1 7 mem_ram_en $end
$var wire 1 6 mem_validout $end
$upscope $end
$scope module pipe_wb_inst $end
$var wire 1 @ mem_result_jmp $end
$upscope $end
$scope module pipe_mem_inst $end
$var wire 1 4 ie_result_mem_store $end
$var wire 1 3 ie_result_mem_load $end
$upscope $end
$scope module pipe_if_inst $end
$var wire 32 $ if_ram_pc[31:0] $end
$upscope $end
$scope module pipe_mem_inst $end
$var wire 32 9 mem_ram_addr[31:0] $end
$upscope $end
$scope module pipe_if_inst $end
$var wire 32 % pc[31:0] $end
$upscope $end
$scope module pipe_mem_inst $end
$var wire 1 5 ie_result_computed $end
$var wire 1 8 mem_write_rd $end
$upscope $end
$scope module pipe_wb_inst $end
$var wire 32 < wb_rd_din[31:0] $end
$var wire 1 ; wb_reg_wen $end
$var wire 32 > pc_pcout[31:0] $end
$var wire 1 = wb_pc_wen $end
$var wire 1 ? wb_validout $end
$upscope $end
$scope module reg_pc_inst $end
$var wire 1 A wen $end
$upscope $end
$scope module reg_arr_inst $end
$var wire 32 C test1[31:0] $end
$var wire 32 D test2[31:0] $end
$upscope $end
$scope module reg_pc_inst $end
$var wire 32 B pcin[31:0] $end
$upscope $end
$scope module reg_arr_inst $end
$var wire 32 E test3[31:0] $end
$upscope $end
$scope module pipe_ie_inst $end
$var wire 1 - op_JAL $end
$var wire 32 0 ie_pc[31:0] $end
$var wire 32 2 result_value[31:0] $end
$var wire 1 . result_jmp $end
$var wire 1 1 result_computed $end
$var wire 32 / result_pc[31:0] $end
$upscope $end
$scope module pipe_id_inst $end
$var wire 32 ' id_pc[31:0] $end
$var wire 1 ) SW $end
$var wire 32 & ram_dout[31:0] $end
$var wire 1 * LW $end
$var wire 1 + BGEU $end
$var wire 1 , JAL $end
$var wire 1 ( ADDI $end
$upscope $end
$var wire 1 # rst_n $end
$var wire 1 " clk $end
$upscope $end
$upscope $end
$enddefinitions $end
$dumpvars
#0
x*
x-
bx C
x,
x@
bx :
x7
x+
bx 9
x?
bx %
x(
xA
1#
x8
x4
x"
bx D
bx E
x5
bx B
bx &
x;
x3
bx 0
x6
x.
bx <
bx 2
x=
bx $
x1
bx /
x)
bx >
bx '
#10
05
0(
07
0*
0,
b0 %
b0 9
0+
0?
08
0A
0#
04
0"
b0 >
0.
0;
06
03
0)
0=
b0 $
01
#30
1#
#210
b100 %
1"
#410
0"
#550
b1000000000000000000000010010011 &
#610
1(
b0 '
1"
b1000 %
b100 $
#810
0"
#950
b1010000000100011 &
#1010
1"
0(
11
0-
15
b1000 $
b1100 %
b100 '
b0 0
b10000000000 2
1)
b110000000000 /
#1210
0"
#1350
b1010001000100011 &
#1410
1"
b100 /
01
0@
14
b10000 %
05
b1100 $
b0 2
16
b100 0
b1000 '
#1610
0"
#1750
b1010000100000011 &
#1810
1"
b1100 '
b10000000000 C
b1100 /
b0 :
b10000000000 9
1*
17
1?
b1000 0
0)
b100 B
b100 >
b10000000000 <
#2010
0"
#2110
07
#2210
17
1"
b10000000100 9
b1110 /
0*
b1000 >
b1100 0
04
b1000 B
13
#2410
0"
#2510
07
#2610
17
1"
03
b10000000000 9
18
b1100 B
b1100 >
#2810
0"
#2950
07
b0 &
#3010
1"
b10000 >
b0 <
b0 D
b10000 B
b10100 %
06
b10000 $
#3210
0"
#3350
b10100000000000110010011 &
#3410
1"
b10100 $
b10000 '
1(
b11000 %
#3610
0"
#3750
b1100010111011001100011 &
#3810
1"
b11100 %
b10100 '
b11000 $
b100000010010 /
11
1+
0(
15
b10000 0
b101 2
#4010
0"
#4150
b100010000000100010011 &
#4210
1"
b0 2
01
b11000 '
b100000 %
b100000 /
b11100 $
b10100 0
05
16
1(
0+
#4410
0"
#4550
b11111111111111111100000001101111 &
#4610
1"
b11010 /
11
b101 <
b1 2
1,
b100100 %
b11100 '
b101 E
b10100 >
0(
b100000 $
15
b10100 B
b11000 0
#4810
0"
#4950
b1000001010001000100011 &
#5010
1"
b11100 0
1-
b1000001010001000100011 <
01
b10100 /
b100000 '
b101000 %
b0 2
0,
b11000 B
1)
1.
05
b100100 $
b11000 >
#5210
0"
#5350
b1101111 &
#5410
1"
b11100 >
1@
b1 <
b10100 %
b100100 '
b10100 $
b11100 B
1,
b1 D
0)
#5610
0"
#5750
b1100010111011001100011 &
#5810
1"
b10100 >
1+
b100000 <
b10100 B
b10100 '
0,
06
#6010
0"
#6210
1"
0-
b10100 0
b100000 /
0.
#6410
0"
#6610
1"
b11000 %
16
0@
#6810
0"
#7010
1"
b11100 %
b11000 >
b1100010111011001100011 <
b11000 $
b11000 B
#7210
0"
#7350
b100010000000100010011 &
#7410
1"
b11100 B
0+
b100000 %
b11100 $
b11100 >
b100010000000100010011 <
b11000 '
1(
#7610
0"
#7750
b11111111111111111100000001101111 &
#7810
1"
0(
b10 2
b11000 0
b100000 B
11
b11100 '
b100100 %
b11010 /
b11111111111111111100000001101111 <
1,
b100000 >
15
b100000 $
#8010
0"
#8150
b1000001010001000100011 &
#8210
1"
b100100 $
b100100 B
1)
1.
b11100 0
b0 2
1-
05
b100000 '
01
b100100 >
b101000 %
0,
b10100 /
b1000001010001000100011 <
#8410
0"
#8550
b1101111 &
#8610
1"
b10 <
b101000 B
b10100 $
1@
0)
b10 D
1,
b100100 '
b10100 %
b101000 >
#8810
0"
#8950
b1100010111011001100011 &
#9010
1"
b10100 >
06
b101100 <
1+
b10100 B
b10100 '
0,
#9210
0"
#9410
1"
0.
b10100 0
b100000 /
0-
#9610
0"
#9810
1"
0@
16
b11000 %
#10010
0"
#10210
1"
b11100 %
b11000 >
b11000 $
b1100010111011001100011 <
b11000 B
#10410
0"
#10550
b100010000000100010011 &
#10610
1"
b11100 B
b11100 $
0+
1(
b11100 >
b100000 %
b100010000000100010011 <
b11000 '
#10810
0"
#10950
b11111111111111111100000001101111 &
#11010
1"
b11100 '
b100000 >
b100000 $
b100000 B
b11 2
0(
1,
b11111111111111111100000001101111 <
b100100 %
b11000 0
15
b11010 /
11
#11210
0"
#11350
b1000001010001000100011 &
#11410
1"
01
b100100 $
b100100 >
b100000 '
1-
b0 2
b100100 B
1.
b10100 /
b101000 %
b1000001010001000100011 <
0,
05
1)
b11100 0
#11610
0"
#11750
b1101111 &
#11810
1"
b101000 B
b101000 >
b10100 $
1@
b100100 '
0)
b10100 %
b11 <
1,
b11 D
#12010
0"
#12150
b1100010111011001100011 &
#12210
1"
b10100 >
b10100 B
1+
0,
b10100 '
b101100 <
06
#12410
0"
#12610
1"
b10100 0
0-
b100000 /
0.
#12810
0"
#13010
1"
16
0@
b11000 %
#13210
0"
#13410
1"
b11100 %
b11000 B
b11000 >
b11000 $
b1100010111011001100011 <
#13610
0"
#13750
b100010000000100010011 &
#13810
1"
b100010000000100010011 <
1(
b11100 >
b11100 B
b100000 %
b11100 $
0+
b11000 '
#14010
0"
#14150
b11111111111111111100000001101111 &
#14210
1"
b11100 '
b100000 B
11
b11111111111111111100000001101111 <
b100000 >
0(
b100 2
b11000 0
b100100 %
b100000 $
15
b11010 /
1,
#14410
0"
#14550
b1000001010001000100011 &
#14610
1"
0,
b0 2
b100100 B
1.
b100000 '
b100100 >
01
b1000001010001000100011 <
b10100 /
1-
05
b11100 0
b100100 $
b101000 %
1)
#14810
0"
#14950
b1101111 &
#15010
1"
0)
b101000 B
1,
b100 D
b101000 >
b100100 '
b10100 %
b100 <
1@
b10100 $
#15210
0"
#15350
b1100010111011001100011 &
#15410
1"
b10100 >
06
b10100 B
0,
b10100 '
1+
b101100 <
#15610
0"
#15810
1"
0.
b100000 /
b10100 0
0-
#16010
0"
#16210
1"
16
0@
b11000 %
#16410
0"
#16610
1"
b11100 %
b11000 B
b11000 >
b11000 $
b1100010111011001100011 <
#16810
0"
#16950
b100010000000100010011 &
#17010
1"
b100010000000100010011 <
b11100 $
b100000 %
b11100 B
b11100 >
1(
b11000 '
0+
#17210
0"
#17350
b11111111111111111100000001101111 &
#17410
1"
b100000 >
b100000 $
b11111111111111111100000001101111 <
11
b101 2
b100000 B
b100100 %
b11100 '
b11000 0
1,
0(
b11010 /
15
#17610
0"
#17750
b1000001010001000100011 &
#17810
1"
05
b100100 B
b1000001010001000100011 <
b100100 >
b100100 $
1)
b0 2
01
1-
b10100 /
b100000 '
b101000 %
b11100 0
0,
1.
#18010
0"
#18150
b1101111 &
#18210
1"
b101000 >
b101 <
b101000 B
0)
b10100 $
b101 D
1,
b10100 %
b100100 '
1@
#18410
0"
#18550
b1100010111011001100011 &
#18610
1"
1+
b10100 >
b10100 B
b101100 <
b10100 '
06
0,
#18810
0"
#19010
1"
b100000 /
0-
b10100 0
#19210
0"
#19410
1"
b100000 $
16
b100000 %
#19610
0"
#19750
b1000001010001000100011 &
#19810
1"
b100000 B
b100000 >
0+
1)
06
b1000001010001000100011 <
b100000 '
#20010
0"
#20210
1"
0.
b100000 0
14
b100100 /
#20410
0"
#20610
1"
0@
17
b101 :
b10000000100 9
16
#20810
0"
#20910
07
#21010
17
1"
b100100 >
b100100 B
0)
#21210
0"
#21310
07
#21410
17
1"
b101000 >
b101000 B
04
#21610
0"
#21710
07
#21810
1"
b100100 %
06
b101100 B
b101100 >
#22010
0"
#22210
1"
b101000 %
1)
b100100 $
#22410
0"
#22550
b1101111 &
#22610
1"
b101000 $
b100100 '
1,
b101100 %
14
0)
#22810
0"
#22950
bx &
#23010
1"
x)
17
x,
b101000 '
x+
04
x*
1-
b100100 0
x(
16
1.
#23210
0"
#23310
07
#23410
1"
b100100 %
b100100 $
1@
0)
b110000 >
0,
0+
bx <
0(
0*
b110000 B
#23610
0"
#23750
b1101111 &
#23810
1"
b100100 B
b100100 >
b100100 '
0.
1,
06
b110100 <
#24010
0"
#24210
1"
b101000 %
1.
#24410
0"
#24610
1"
b100100 %
16
#24810
0"
#25010
1"
b101000 <
