riscv32/wave.vcd
$date
	Tue Jul 26 17:57:31 2022
$end
$version
	Icarus Verilog
$end
$timescale
	1ns
$end
$scope module rv32_tb $end
$var wire 1 ! sram_clk $end
$var wire 1 " pipe_clk $end
$var reg 1 # clk $end
$var reg 1 $ rst_n $end
$scope module core_clk_inst $end
$var wire 1 # clk $end
$var wire 1 $ rst_n $end
$var reg 1 " pipe_clk $end
$var reg 4 % pipe_counter [3:0] $end
$var reg 1 ! sram_clk $end
$upscope $end
$scope module pipe_top_inst $end
$var wire 1 " clk $end
$var wire 1 $ rst_n $end
$var wire 1 ! sram_clk $end
$var wire 1 & wvalid $end
$var wire 1 ' wready $end
$var wire 32 ( wdata [31:0] $end
$var wire 1 ) wb_validout $end
$var wire 1 * wb_reg_wen $end
$var wire 32 + wb_rd_din [31:0] $end
$var wire 5 , wb_rd_addr [4:0] $end
$var wire 32 - wb_pcin [31:0] $end
$var wire 1 . wb_pc_wen $end
$var wire 1 / wb_allowin $end
$var wire 1 0 rvalid $end
$var wire 1 1 rready $end
$var wire 32 2 reg_rs2_dout [31:0] $end
$var wire 32 3 reg_rs1_dout [31:0] $end
$var wire 1 4 reg_done $end
$var wire 32 5 rdata [31:0] $end
$var wire 1 6 ram_wen $end
$var wire 2 7 ram_size [1:0] $end
$var wire 1 8 ram_en $end
$var wire 32 9 ram_dout [31:0] $end
$var wire 1 : ram_done $end
$var wire 32 ; ram_din [31:0] $end
$var wire 32 < ram_addr [31:0] $end
$var wire 32 = pc_pcout [31:0] $end
$var wire 1 > pc_done $end
$var wire 1 ? mem_write_rd $end
$var wire 1 @ mem_validout $end
$var wire 5 A mem_rs2 [4:0] $end
$var wire 5 B mem_rs1 [4:0] $end
$var wire 32 C mem_result_value [31:0] $end
$var wire 32 D mem_result_pc [31:0] $end
$var wire 1 E mem_result_mem_load $end
$var wire 32 F mem_result_link_addr [31:0] $end
$var wire 1 G mem_result_link $end
$var wire 1 H mem_result_jmp $end
$var wire 1 I mem_result_computed $end
$var wire 5 J mem_rd [4:0] $end
$var wire 1 K mem_ram_wen $end
$var wire 2 L mem_ram_size [1:0] $end
$var wire 1 M mem_ram_en $end
$var wire 32 N mem_ram_din [31:0] $end
$var wire 32 O mem_ram_addr [31:0] $end
$var wire 1 P mem_allowin $end
$var wire 1 Q if_validout $end
$var wire 32 R if_ram_pc [31:0] $end
$var wire 1 S if_ram_en $end
$var wire 1 T if_allowin $end
$var wire 1 U ie_validout $end
$var wire 5 V ie_rs2 [4:0] $end
$var wire 5 W ie_rs1 [4:0] $end
$var wire 32 X ie_result_value [31:0] $end
$var wire 32 Y ie_result_pc [31:0] $end
$var wire 1 Z ie_result_mem_store $end
$var wire 2 [ ie_result_mem_size [1:0] $end
$var wire 1 \ ie_result_mem_load $end
$var wire 32 ] ie_result_mem_din [31:0] $end
$var wire 32 ^ ie_result_mem_addr [31:0] $end
$var wire 32 _ ie_result_link_addr [31:0] $end
$var wire 1 ` ie_result_link $end
$var wire 1 a ie_result_jmp $end
$var wire 1 b ie_result_computed $end
$var wire 5 c ie_rd [4:0] $end
$var wire 1 d id_validout $end
$var wire 5 e id_rs2 [4:0] $end
$var wire 5 f id_rs1 [4:0] $end
$var wire 5 g id_rd [4:0] $end
$var wire 32 h id_pc [31:0] $end
$var wire 7 i id_func7 [6:0] $end
$var wire 3 j id_func3 [2:0] $end
$var wire 1 k id_XORI $end
$var wire 1 l id_XOR $end
$var wire 1 m id_SW $end
$var wire 1 n id_SUB $end
$var wire 1 o id_SRLI $end
$var wire 1 p id_SRL $end
$var wire 1 q id_SLTU $end
$var wire 1 r id_SLTIU $end
$var wire 1 s id_SLTI $end
$var wire 1 t id_SLT $end
$var wire 1 u id_SLLI $end
$var wire 1 v id_SLL $end
$var wire 1 w id_SH $end
$var wire 1 x id_SB $end
$var wire 1 y id_ORI $end
$var wire 1 z id_OR $end
$var wire 1 { id_LW $end
$var wire 1 | id_LUI $end
$var wire 1 } id_LHU $end
$var wire 1 ~ id_LH $end
$var wire 1 !" id_LBU $end
$var wire 1 "" id_LB $end
$var wire 1 #" id_JALR $end
$var wire 1 $" id_JAL $end
$var wire 1 %" id_BNE $end
$var wire 1 &" id_BLTU $end
$var wire 1 '" id_BLT $end
$var wire 1 (" id_BGEU $end
$var wire 1 )" id_BGE $end
$var wire 1 *" id_BEQ $end
$var wire 1 +" id_AUIPC $end
$var wire 1 ," id_ANDI $end
$var wire 1 -" id_AND $end
$var wire 1 ." id_ADDI $end
$var wire 1 /" id_ADD $end
$var wire 1 0" bvalid $end
$var wire 1 1" bready $end
$var wire 1 2" awvalid $end
$var wire 2 3" awsize [1:0] $end
$var wire 1 4" awready $end
$var wire 32 5" awaddr [31:0] $end
$var wire 1 6" arvalid $end
$var wire 2 7" arsize [1:0] $end
$var wire 1 8" arready $end
$var wire 32 9" araddr [31:0] $end
$scope module mem_mux_inst $end
$var wire 1 K mem_ram_wen $end
$var wire 2 :" mem_ram_size [1:0] $end
$var wire 1 M mem_ram_en $end
$var wire 32 ;" mem_ram_din [31:0] $end
$var wire 32 <" mem_ram_addr [31:0] $end
$var wire 32 =" if_ram_pc [31:0] $end
$var wire 1 S if_ram_en $end
$var reg 32 >" ram_addr [31:0] $end
$var reg 32 ?" ram_din [31:0] $end
$var reg 1 8 ram_en $end
$var reg 2 @" ram_size [1:0] $end
$var reg 1 6 ram_wen $end
$upscope $end
$scope module pipe_id_inst $end
$var wire 1 /" ADD $end
$var wire 1 ." ADDI $end
$var wire 1 -" AND $end
$var wire 1 ," ANDI $end
$var wire 1 +" AUIPC $end
$var wire 1 *" BEQ $end
$var wire 1 )" BGE $end
$var wire 1 (" BGEU $end
$var wire 1 '" BLT $end
$var wire 1 &" BLTU $end
$var wire 1 %" BNE $end
$var wire 1 A" FUNC3_000 $end
$var wire 1 B" FUNC3_001 $end
$var wire 1 C" FUNC3_010 $end
$var wire 1 D" FUNC3_011 $end
$var wire 1 E" FUNC3_100 $end
$var wire 1 F" FUNC3_101 $end
$var wire 1 G" FUNC3_110 $end
$var wire 1 H" FUNC3_111 $end
$var wire 1 I" FUNC7_0000000 $end
$var wire 1 J" FUNC7_0100000 $end
$var wire 1 $" JAL $end
$var wire 1 #" JALR $end
$var wire 1 "" LB $end
$var wire 1 !" LBU $end
$var wire 1 ~ LH $end
$var wire 1 } LHU $end
$var wire 1 | LUI $end
$var wire 1 { LW $end
$var wire 1 K" OP_0000011 $end
$var wire 1 L" OP_0010011 $end
$var wire 1 M" OP_0010111 $end
$var wire 1 N" OP_0100011 $end
$var wire 1 O" OP_0110011 $end
$var wire 1 P" OP_0110111 $end
$var wire 1 Q" OP_1100011 $end
$var wire 1 R" OP_1100111 $end
$var wire 1 S" OP_1101111 $end
$var wire 1 z OR $end
$var wire 1 y ORI $end
$var wire 1 x SB $end
$var wire 1 w SH $end
$var wire 1 v SLL $end
$var wire 1 u SLLI $end
$var wire 1 t SLT $end
$var wire 1 s SLTI $end
$var wire 1 r SLTIU $end
$var wire 1 q SLTU $end
$var wire 1 T" SRA $end
$var wire 1 p SRL $end
$var wire 1 o SRLI $end
$var wire 1 n SUB $end
$var wire 1 m SW $end
$var wire 1 l XOR $end
$var wire 1 k XORI $end
$var wire 1 " clk $end
$var wire 1 $ rst_n $end
$var wire 32 U" ram_dout [31:0] $end
$var wire 1 P mem_allowin $end
$var wire 1 Q if_validout $end
$var wire 32 V" if_ram_pc [31:0] $end
$var reg 1 W" decode_en $end
$var reg 3 X" id_func3 [2:0] $end
$var reg 7 Y" id_func7 [6:0] $end
$var reg 32 Z" id_pc [31:0] $end
$var reg 5 [" id_rd [4:0] $end
$var reg 5 \" id_rs1 [4:0] $end
$var reg 5 ]" id_rs2 [4:0] $end
$var reg 1 d id_validout $end
$var reg 7 ^" opcode [6:0] $end
$upscope $end
$scope module pipe_ie_inst $end
$var wire 1 " clk $end
$var wire 3 _" id_func3 [2:0] $end
$var wire 7 `" id_func7 [6:0] $end
$var wire 1 /" id_op_ADD $end
$var wire 1 ." id_op_ADDI $end
$var wire 1 -" id_op_AND $end
$var wire 1 ," id_op_ANDI $end
$var wire 1 +" id_op_AUIPC $end
$var wire 1 *" id_op_BEQ $end
$var wire 1 )" id_op_BGE $end
$var wire 1 (" id_op_BGEU $end
$var wire 1 '" id_op_BLT $end
$var wire 1 &" id_op_BLTU $end
$var wire 1 %" id_op_BNE $end
$var wire 1 $" id_op_JAL $end
$var wire 1 #" id_op_JALR $end
$var wire 1 "" id_op_LB $end
$var wire 1 !" id_op_LBU $end
$var wire 1 ~ id_op_LH $end
$var wire 1 } id_op_LHU $end
$var wire 1 | id_op_LUI $end
$var wire 1 { id_op_LW $end
$var wire 1 z id_op_OR $end
$var wire 1 y id_op_ORI $end
$var wire 1 x id_op_SB $end
$var wire 1 w id_op_SH $end
$var wire 1 v id_op_SLL $end
$var wire 1 u id_op_SLLI $end
$var wire 1 t id_op_SLT $end
$var wire 1 s id_op_SLTI $end
$var wire 1 r id_op_SLTIU $end
$var wire 1 q id_op_SLTU $end
$var wire 1 p id_op_SRL $end
$var wire 1 o id_op_SRLI $end
$var wire 1 n id_op_SUB $end
$var wire 1 m id_op_SW $end
$var wire 1 l id_op_XOR $end
$var wire 1 k id_op_XORI $end
$var wire 32 a" id_pc [31:0] $end
$var wire 5 b" id_rd [4:0] $end
$var wire 5 c" id_rs1 [4:0] $end
$var wire 5 d" id_rs2 [4:0] $end
$var wire 1 d id_validout $end
$var wire 1 b result_computed $end
$var wire 1 a result_jmp $end
$var wire 1 ` result_link $end
$var wire 32 e" result_mem_din [31:0] $end
$var wire 1 \ result_mem_load $end
$var wire 1 Z result_mem_store $end
$var wire 1 $ rst_n $end
$var wire 1 f" rs1_lt_rs2_unsigned $end
$var wire 1 g" rs1_lt_rs2_signed $end
$var wire 1 h" rs1_ge_rs2_unsigned $end
$var wire 1 i" rs1_ge_rs2_signed $end
$var wire 1 j" rs1_eq_rs2 $end
$var wire 32 k" result_value [31:0] $end
$var wire 32 l" result_pc [31:0] $end
$var wire 2 m" result_mem_size [1:0] $end
$var wire 32 n" result_mem_addr [31:0] $end
$var wire 32 o" result_link_addr [31:0] $end
$var wire 32 p" reg_rs2_dout_old [31:0] $end
$var wire 32 q" reg_rs2_dout [31:0] $end
$var wire 32 r" reg_rs1_dout_old [31:0] $end
$var wire 32 s" reg_rs1_dout [31:0] $end
$var wire 32 t" ram_dout [31:0] $end
$var wire 32 u" mem_result_value [31:0] $end
$var wire 1 E mem_result_mem_load $end
$var wire 1 I mem_result_computed $end
$var wire 5 v" mem_rd [4:0] $end
$var wire 1 P mem_allowin $end
$var reg 1 w" execute_en $end
$var reg 3 x" ie_func3 [2:0] $end
$var reg 7 y" ie_func7 [6:0] $end
$var reg 32 z" ie_pc [31:0] $end
$var reg 5 {" ie_rd [4:0] $end
$var reg 5 |" ie_rs1 [4:0] $end
$var reg 5 }" ie_rs2 [4:0] $end
$var reg 1 U ie_validout $end
$var reg 1 ~" op_ADD $end
$var reg 1 !# op_ADDI $end
$var reg 1 "# op_AND $end
$var reg 1 ## op_ANDI $end
$var reg 1 $# op_AUIPC $end
$var reg 1 %# op_BEQ $end
$var reg 1 &# op_BGE $end
$var reg 1 '# op_BGEU $end
$var reg 1 (# op_BLT $end
$var reg 1 )# op_BLTU $end
$var reg 1 *# op_BNE $end
$var reg 1 +# op_JAL $end
$var reg 1 ,# op_JALR $end
$var reg 1 -# op_LB $end
$var reg 1 .# op_LBU $end
$var reg 1 /# op_LH $end
$var reg 1 0# op_LHU $end
$var reg 1 1# op_LUI $end
$var reg 1 2# op_LW $end
$var reg 1 3# op_OR $end
$var reg 1 4# op_ORI $end
$var reg 1 5# op_SB $end
$var reg 1 6# op_SH $end
$var reg 1 7# op_SLL $end
$var reg 1 8# op_SLLI $end
$var reg 1 9# op_SLT $end
$var reg 1 :# op_SLTI $end
$var reg 1 ;# op_SLTIU $end
$var reg 1 <# op_SLTU $end
$var reg 1 =# op_SRL $end
$var reg 1 ># op_SRLI $end
$var reg 1 ?# op_SUB $end
$var reg 1 @# op_SW $end
$var reg 1 A# op_XOR $end
$var reg 1 B# op_XORI $end
$upscope $end
$scope module pipe_if_inst $end
$var wire 1 " clk $end
$var wire 1 a ie_result_jmp $end
$var wire 1 \ ie_result_mem_load $end
$var wire 1 Z ie_result_mem_store $end
$var wire 32 C# ie_result_pc [31:0] $end
$var wire 1 $ rst_n $end
$var wire 1 ) wb_validout $end
$var wire 1 : ram_done $end
$var wire 32 D# pc_pcout [31:0] $end
$var wire 1 P mem_allowin $end
$var reg 1 T if_allowin $end
$var reg 1 S if_ram_en $end
$var reg 32 E# if_ram_pc [31:0] $end
$var reg 1 Q if_validout $end
$var reg 32 F# pc [31:0] $end
$upscope $end
$scope module pipe_mem_inst $end
$var wire 1 " clk $end
$var wire 5 G# ie_rd [4:0] $end
$var wire 1 b ie_result_computed $end
$var wire 1 a ie_result_jmp $end
$var wire 1 ` ie_result_link $end
$var wire 32 H# ie_result_link_addr [31:0] $end
$var wire 32 I# ie_result_mem_addr [31:0] $end
$var wire 32 J# ie_result_mem_din [31:0] $end
$var wire 1 \ ie_result_mem_load $end
$var wire 2 K# ie_result_mem_size [1:0] $end
$var wire 1 Z ie_result_mem_store $end
$var wire 32 L# ie_result_pc [31:0] $end
$var wire 32 M# ie_result_value [31:0] $end
$var wire 5 N# ie_rs1 [4:0] $end
$var wire 5 O# ie_rs2 [4:0] $end
$var wire 1 U ie_validout $end
$var wire 1 $ rst_n $end
$var wire 1 / wb_allowin $end
$var wire 32 P# ram_dout [31:0] $end
$var wire 1 : ram_done $end
$var reg 1 P mem_allowin $end
$var reg 32 Q# mem_ram_addr [31:0] $end
$var reg 32 R# mem_ram_din [31:0] $end
$var reg 1 M mem_ram_en $end
$var reg 2 S# mem_ram_size [1:0] $end
$var reg 1 K mem_ram_wen $end
$var reg 5 T# mem_rd [4:0] $end
$var reg 1 I mem_result_computed $end
$var reg 1 H mem_result_jmp $end
$var reg 1 G mem_result_link $end
$var reg 32 U# mem_result_link_addr [31:0] $end
$var reg 1 E mem_result_mem_load $end
$var reg 32 V# mem_result_pc [31:0] $end
$var reg 32 W# mem_result_value [31:0] $end
$var reg 5 X# mem_rs1 [4:0] $end
$var reg 5 Y# mem_rs2 [4:0] $end
$var reg 1 @ mem_validout $end
$var reg 1 ? mem_write_rd $end
$upscope $end
$scope module pipe_wb_inst $end
$var wire 1 " clk $end
$var wire 1 T if_allowin $end
$var wire 5 Z# mem_rd [4:0] $end
$var wire 1 I mem_result_computed $end
$var wire 1 H mem_result_jmp $end
$var wire 1 G mem_result_link $end
$var wire 32 [# mem_result_link_addr [31:0] $end
$var wire 32 \# mem_result_pc [31:0] $end
$var wire 32 ]# mem_result_value [31:0] $end
$var wire 5 ^# mem_rs1 [4:0] $end
$var wire 5 _# mem_rs2 [4:0] $end
$var wire 1 @ mem_validout $end
$var wire 1 ? mem_write_rd $end
$var wire 1 $ rst_n $end
$var wire 1 4 wb_reg_done $end
$var wire 32 `# ram_dout [31:0] $end
$var wire 32 a# pc_pcout [31:0] $end
$var wire 1 > pc_done $end
$var reg 1 / wb_allowin $end
$var reg 1 . wb_pc_wen $end
$var reg 32 b# wb_pcin [31:0] $end
$var reg 5 c# wb_rd_addr [4:0] $end
$var reg 32 d# wb_rd_din [31:0] $end
$var reg 1 * wb_reg_wen $end
$var reg 1 ) wb_validout $end
$upscope $end
$scope module reg_arr_inst $end
$var wire 5 e# rd_addr [4:0] $end
$var wire 32 f# rd_din [31:0] $end
$var wire 5 g# rs1_addr [4:0] $end
$var wire 32 h# rs1_dout [31:0] $end
$var wire 5 i# rs2_addr [4:0] $end
$var wire 32 j# rs2_dout [31:0] $end
$var wire 1 $ rst_n $end
$var wire 32 k# test1 [31:0] $end
$var wire 32 l# test2 [31:0] $end
$var wire 32 m# test3 [31:0] $end
$var wire 1 * wen $end
$var reg 1 4 done $end
$upscope $end
$scope module reg_pc_inst $end
$var wire 32 n# pcin [31:0] $end
$var wire 32 o# pcout [31:0] $end
$var wire 1 $ rst_n $end
$var wire 1 . wen $end
$var reg 1 > done $end
$var reg 32 p# pc [31:0] $end
$upscope $end
$scope module sram_master $end
$var wire 32 q# addr [31:0] $end
$var wire 1 ! clk $end
$var wire 32 r# din [31:0] $end
$var wire 1 8 en $end
$var wire 1 $ rst_n $end
$var wire 2 s# size [1:0] $end
$var wire 1 6 wen $end
$var wire 1 ' wready $end
$var wire 1 0 rvalid $end
$var wire 32 t# rdata [31:0] $end
$var wire 1 0" bvalid $end
$var wire 1 4" awready $end
$var wire 1 8" arready $end
$var parameter 3 u# STATE_READ_AR_READY $end
$var parameter 3 v# STATE_READ_AR_VALID $end
$var parameter 3 w# STATE_READ_IDLE $end
$var parameter 3 x# STATE_READ_R_READY $end
$var parameter 3 y# STATE_WRITE_AWW_READY $end
$var parameter 3 z# STATE_WRITE_AWW_VALID $end
$var parameter 3 {# STATE_WRITE_IDLE $end
$var parameter 3 |# STATE_WRITE_RESP_READY $end
$var reg 32 }# araddr [31:0] $end
$var reg 2 ~# arsize [1:0] $end
$var reg 1 6" arvalid $end
$var reg 32 !$ awaddr [31:0] $end
$var reg 2 "$ awsize [1:0] $end
$var reg 1 2" awvalid $end
$var reg 1 1" bready $end
$var reg 3 #$ cur_state_read [2:0] $end
$var reg 3 $$ cur_state_write [2:0] $end
$var reg 1 : done $end
$var reg 32 %$ dout [31:0] $end
$var reg 3 &$ nxt_state_read [2:0] $end
$var reg 3 '$ nxt_state_write [2:0] $end
$var reg 1 1 rready $end
$var reg 1 ($ useless_reg $end
$var reg 32 )$ wdata [31:0] $end
$var reg 1 & wvalid $end
$upscope $end
$scope module sram_slaver $end
$var wire 32 *$ araddr [31:0] $end
$var wire 2 +$ arsize [1:0] $end
$var wire 1 6" arvalid $end
$var wire 32 ,$ awaddr [31:0] $end
$var wire 2 -$ awsize [1:0] $end
$var wire 1 2" awvalid $end
$var wire 1 1" bready $end
$var wire 1 ! clk $end
$var wire 1 1 rready $end
$var wire 1 $ rst_n $end
$var wire 32 .$ wdata [31:0] $end
$var wire 1 & wvalid $end
$var parameter 3 /$ STATE_READ_AR_READY $end
$var parameter 3 0$ STATE_READ_IDLE $end
$var parameter 3 1$ STATE_READ_READ $end
$var parameter 3 2$ STATE_READ_READ_READY $end
$var parameter 3 3$ STATE_READ_WAIT $end
$var parameter 3 4$ STATE_WRITE_AWW_READY $end
$var parameter 3 5$ STATE_WRITE_IDLE $end
$var parameter 3 6$ STATE_WRITE_RESP $end
$var reg 13 7$ addr [12:0] $end
$var reg 1 8" arready $end
$var reg 1 4" awready $end
$var reg 1 0" bvalid $end
$var reg 3 8$ cs [2:0] $end
$var reg 3 9$ cur_state_read [2:0] $end
$var reg 3 :$ cur_state_write [2:0] $end
$var reg 1 ;$ en $end
$var reg 3 <$ nxt_state_read [2:0] $end
$var reg 3 =$ nxt_state_write [2:0] $end
$var reg 32 >$ rdata [31:0] $end
$var reg 1 0 rvalid $end
$var reg 2 ?$ size [1:0] $end
$var reg 1 @$ useless_reg $end
$var reg 1 A$ wen $end
$var reg 1 ' wready $end
$scope begin srams[0] $end
$var parameter 2 B$ i $end
$scope module sram $end
$var wire 13 C$ addr [12:0] $end
$var wire 1 ! clk $end
$var wire 3 D$ cs [2:0] $end
$var wire 32 E$ din [31:0] $end
$var wire 1 ;$ en $end
$var wire 1 F$ gnd $end
$var wire 1 $ rst_n $end
$var wire 2 G$ size [1:0] $end
$var wire 1 A$ wen $end
$var wire 11 H$ real_index [10:0] $end
$var parameter 32 I$ sel $end
$var reg 32 J$ dout [31:0] $end
$upscope $end
$upscope $end
$scope begin srams[1] $end
$var parameter 2 K$ i $end
$scope module sram $end
$var wire 13 L$ addr [12:0] $end
$var wire 1 ! clk $end
$var wire 3 M$ cs [2:0] $end
$var wire 32 N$ din [31:0] $end
$var wire 1 ;$ en $end
$var wire 1 O$ gnd $end
$var wire 1 $ rst_n $end
$var wire 2 P$ size [1:0] $end
$var wire 1 A$ wen $end
$var wire 11 Q$ real_index [10:0] $end
$var parameter 32 R$ sel $end
$var reg 32 S$ dout [31:0] $end
$upscope $end
$upscope $end
$scope begin srams[2] $end
$var parameter 3 T$ i $end
$scope module sram $end
$var wire 13 U$ addr [12:0] $end
$var wire 1 ! clk $end
$var wire 3 V$ cs [2:0] $end
$var wire 32 W$ din [31:0] $end
$var wire 1 ;$ en $end
$var wire 1 X$ gnd $end
$var wire 1 $ rst_n $end
$var wire 2 Y$ size [1:0] $end
$var wire 1 A$ wen $end
$var wire 11 Z$ real_index [10:0] $end
$var parameter 32 [$ sel $end
$var reg 32 \$ dout [31:0] $end
$upscope $end
$upscope $end
$scope begin srams[3] $end
$var parameter 3 ]$ i $end
$scope module sram $end
$var wire 13 ^$ addr [12:0] $end
$var wire 1 ! clk $end
$var wire 3 _$ cs [2:0] $end
$var wire 32 `$ din [31:0] $end
$var wire 1 ;$ en $end
$var wire 1 a$ gnd $end
$var wire 1 $ rst_n $end
$var wire 2 b$ size [1:0] $end
$var wire 1 A$ wen $end
$var wire 11 c$ real_index [10:0] $end
$var parameter 32 d$ sel $end
$var reg 32 e$ dout [31:0] $end
$upscope $end
$upscope $end
$scope begin srams[4] $end
$var parameter 4 f$ i $end
$scope module sram $end
$var wire 13 g$ addr [12:0] $end
$var wire 1 ! clk $end
$var wire 3 h$ cs [2:0] $end
$var wire 32 i$ din [31:0] $end
$var wire 1 ;$ en $end
$var wire 1 j$ gnd $end
$var wire 1 $ rst_n $end
$var wire 2 k$ size [1:0] $end
$var wire 1 A$ wen $end
$var wire 11 l$ real_index [10:0] $end
$var parameter 32 m$ sel $end
$var reg 32 n$ dout [31:0] $end
$upscope $end
$upscope $end
$scope begin srams[5] $end
$var parameter 4 o$ i $end
$scope module sram $end
$var wire 13 p$ addr [12:0] $end
$var wire 1 ! clk $end
$var wire 3 q$ cs [2:0] $end
$var wire 32 r$ din [31:0] $end
$var wire 1 ;$ en $end
$var wire 1 s$ gnd $end
$var wire 1 $ rst_n $end
$var wire 2 t$ size [1:0] $end
$var wire 1 A$ wen $end
$var wire 11 u$ real_index [10:0] $end
$var parameter 32 v$ sel $end
$var reg 32 w$ dout [31:0] $end
$upscope $end
$upscope $end
$scope begin srams[6] $end
$var parameter 4 x$ i $end
$scope module sram $end
$var wire 13 y$ addr [12:0] $end
$var wire 1 ! clk $end
$var wire 3 z$ cs [2:0] $end
$var wire 32 {$ din [31:0] $end
$var wire 1 ;$ en $end
$var wire 1 |$ gnd $end
$var wire 1 $ rst_n $end
$var wire 2 }$ size [1:0] $end
$var wire 1 A$ wen $end
$var wire 11 ~$ real_index [10:0] $end
$var parameter 32 !% sel $end
$var reg 32 "% dout [31:0] $end
$upscope $end
$upscope $end
$scope begin srams[7] $end
$var parameter 4 #% i $end
$scope module sram $end
$var wire 13 $% addr [12:0] $end
$var wire 1 ! clk $end
$var wire 3 %% cs [2:0] $end
$var wire 32 &% din [31:0] $end
$var wire 1 ;$ en $end
$var wire 1 '% gnd $end
$var wire 1 $ rst_n $end
$var wire 2 (% size [1:0] $end
$var wire 1 A$ wen $end
$var wire 11 )% real_index [10:0] $end
$var parameter 32 *% sel $end
$var reg 32 +% dout [31:0] $end
$upscope $end
$upscope $end
$upscope $end
$upscope $end
$upscope $end
$enddefinitions $end
$comment Show the parameter values. $end
$dumpall
b111 *%
b111 #%
b110 !%
b110 x$
b101 v$
b101 o$
b100 m$
b100 f$
b11 d$
b11 ]$
b10 [$
b10 T$
b1 R$
b1 K$
b0 I$
b0 B$
b11 6$
b0 5$
b1 4$
b11 3$
b101 2$
b111 1$
b0 0$
b1 /$
b111 |#
b0 {#
b1 z#
b11 y#
b111 x#
b0 w#
b1 v#
b11 u#
$end
#0
$dumpvars
bx +%
bx )%
bx (%
0'%
bx &%
bx %%
bx $%
bx "%
bx ~$
bx }$
0|$
bx {$
bx z$
bx y$
bx w$
bx u$
bx t$
0s$
bx r$
bx q$
bx p$
bx n$
bx l$
bx k$
0j$
bx i$
bx h$
bx g$
bx e$
bx c$
bx b$
0a$
bx `$
bx _$
bx ^$
bx \$
bx Z$
bx Y$
0X$
bx W$
bx V$
bx U$
bx S$
bx Q$
bx P$
0O$
bx N$
bx M$
bx L$
bx J$
bx H$
bx G$
0F$
bx E$
bx D$
bx C$
xA$
x@$
bx ?$
bx >$
bx =$
bx <$
x;$
bx :$
bx 9$
bx 8$
bx 7$
bx .$
bx -$
bx ,$
bx +$
bx *$
bx )$
x($
bx '$
bx &$
bx %$
bx $$
bx #$
bx "$
bx !$
bx ~#
bx }#
bx t#
bx s#
bx r#
bx q#
bx p#
bx o#
bx n#
bx m#
bx l#
bx k#
bx j#
bx i#
bx h#
bx g#
bx f#
bx e#
bx d#
bx c#
bx b#
bx a#
bx `#
bx _#
bx ^#
bx ]#
bx \#
bx [#
bx Z#
bx Y#
bx X#
bx W#
bx V#
bx U#
bx T#
bx S#
bx R#
bx Q#
bx P#
bx O#
bx N#
bx M#
bx L#
bx K#
bx J#
bx I#
bx H#
bx G#
bx F#
bx E#
bx D#
bx C#
xB#
xA#
x@#
x?#
x>#
x=#
x<#
x;#
x:#
x9#
x8#
x7#
x6#
x5#
x4#
x3#
x2#
x1#
x0#
x/#
x.#
x-#
x,#
x+#
x*#
x)#
x(#
x'#
x&#
x%#
x$#
x##
x"#
x!#
x~"
bx }"
bx |"
bx {"
bx z"
bx y"
bx x"
xw"
bx v"
bx u"
bx t"
bx s"
bx r"
bx q"
bx p"
bx o"
bx n"
bx m"
bx l"
bx k"
xj"
xi"
xh"
xg"
xf"
bx e"
bx d"
bx c"
bx b"
bx a"
bx `"
bx _"
bx ^"
bx ]"
bx \"
bx ["
bx Z"
bx Y"
bx X"
xW"
bx V"
bx U"
xT"
xS"
xR"
xQ"
xP"
xO"
xN"
xM"
xL"
xK"
xJ"
xI"
xH"
xG"
xF"
xE"
xD"
xC"
xB"
xA"
bx @"
bx ?"
bx >"
bx ="
bx <"
bx ;"
bx :"
bx 9"
x8"
bx 7"
x6"
bx 5"
x4"
bx 3"
x2"
x1"
x0"
x/"
x."
x-"
x,"
x+"
x*"
x)"
x("
x'"
x&"
x%"
x$"
x#"
x""
x!"
x~
x}
x|
x{
xz
xy
xx
xw
xv
xu
xt
xs
xr
xq
xp
xo
xn
xm
xl
xk
bx j
bx i
bx h
bx g
bx f
bx e
xd
bx c
xb
xa
x`
bx _
bx ^
bx ]
x\
bx [
xZ
bx Y
bx X
bx W
bx V
xU
xT
xS
bx R
xQ
xP
bx O
bx N
xM
bx L
xK
bx J
xI
xH
xG
bx F
xE
bx D
bx C
bx B
bx A
x@
x?
x>
bx =
bx <
bx ;
x:
bx 9
x8
bx 7
x6
bx 5
x4
bx 3
bx 2
x1
x0
x/
x.
bx -
bx ,
bx +
x*
x)
bx (
x'
x&
bx %
1$
0#
x"
x!
$end
#10
0J"
0I"
0$"
0S"
0#"
0R"
0Q"
0|
0P"
0+"
0M"
0L"
0O"
0N"
0K"
0-"
0z
0p
0o
0T"
0l
0q
0t
0v
0u
0/"
0n
0("
0,"
0&"
0y
0}
0)"
0!"
0'"
0k
0r
0{
0m
0s
0~
0w
0%"
0""
0x
0*"
0."
0H"
0G"
0F"
0E"
0D"
0C"
0B"
0A"
0b
0`
0a
0Z
0\
08
04
0>
b0 '$
b0 &$
b0 =$
b0 <$
0!
0"
b0 %
b0 F#
b0 R
b0 ="
b0 V"
b0 E#
0S
0Q
1T
0W"
0d
0w"
0U
0I
0E
0K
b0 L
b0 :"
b0 S#
b0 O
b0 <"
b0 Q#
0M
0?
0@
1P
b0 ,
b0 c#
b0 e#
0*
0.
0)
1/
b0 =
b0 D#
b0 a#
b0 o#
b0 p#
b0 $$
b0 #$
0:
01
01"
0&
02"
06"
b0 J$
b0 S$
b0 \$
b0 e$
b0 n$
b0 w$
b0 "%
b0 +%
b0 :$
b0 9$
0A$
0;$
00"
00
0'
04"
08"
1#
0$
#20
0#
#30
0@$
1!
b1 %
1#
1$
#40
0#
#50
0!
b10 %
1#
#60
0#
#70
1!
b11 %
1#
#80
0#
#90
0!
b100 %
1#
#100
0#
#110
1!
b101 %
1#
#120
0#
#130
0!
b110 %
1#
#140
0#
#150
1!
b111 %
1#
#160
0#
#170
0!
b1000 %
1#
#180
0#
#190
1!
b1001 %
1#
#200
0#
#210
b1 &$
b10 7
b10 @"
b10 s#
b0 <
b0 >"
b0 q#
06
18
b100 F#
1S
1Q
1"
0!
b0 %
1#
#220
0#
#230
b11 &$
b1 #$
1!
b1 %
1#
#240
0#
#250
0!
b10 %
1#
#260
0#
#270
b1 <$
16"
b10 7"
b10 ~#
b10 +$
b0 9"
b0 }#
b0 *$
b11 #$
1!
b11 %
1#
#280
0#
#290
0!
b100 %
1#
#300
0#
#310
b1 9$
1!
b101 %
1#
#320
0#
#330
0!
b110 %
1#
#340
0#
#350
b0 H$
b0 Q$
b0 Z$
b0 c$
b0 l$
b0 u$
b0 ~$
b0 )%
b111 &$
b11 <$
b10 ?$
b10 G$
b10 P$
b10 Y$
b10 b$
b10 k$
b10 t$
b10 }$
b10 (%
b0 8$
b0 D$
b0 M$
b0 V$
b0 _$
b0 h$
b0 q$
b0 z$
b0 %%
b0 7$
b0 C$
b0 L$
b0 U$
b0 ^$
b0 g$
b0 p$
b0 y$
b0 $%
1;$
18"
1!
b111 %
1#
#360
0#
#370
0!
b1000 %
1#
#380
0#
#390
b111 <$
b111 #$
06"
b1000000000000000000000010010011 J$
b11 9$
08"
1!
b1001 %
1#
#400
0#
#410
0"
0!
b0 %
1#
#420
0#
#430
b101 <$
b111 9$
1!
b1 %
1#
#440
0#
